Overview statistic tests PB
…
# From wide to long

data.long = pivot_longer(
  data = data.wide, 
  cols = starts_with("pre") | starts_with("post"), 
  names_to = c("time","group"),
  names_pattern = "(pre|post)([A-c])"
)
data.long

# A tibble: 120 × 4
      ID time  group value
   <int> <chr> <chr> <dbl>
 1     1 pre   A      6.31
 2     1 pre   B     16.3 
 3     1 pre   C      9.85
 4     1 post  A      5.64
 5     1 post  B     18.0 
 6     1 post  C     23.2 
 7     2 pre   A      9.55
 8     2 pre   B      6.40
 9     2 pre   C      5.12
10     2 post  A     17.1 
# ℹ 110 more rows
…
